{
  "plugins": ["plugins/markdown"],
  "source": {
    "include": ["src"],
    "includePattern": ".js$",
    "excludePattern": "(node_modules/|docs)"
  },
  "templates": {
    "cleverLinks": true,
    "monospaceLinks": false
  },
  "opts": {
    "destination": "./jsdoc",
    "recurse": true,
    "template": "node_modules/docdash",
    "tutorials": "./tutorials",
    "readme": "./README.md"
  }
}
